<?xml version="1.0" encoding="UTF-8" standalone="no"?>
<svg
   xmlns:dc="http://purl.org/dc/elements/1.1/"
   xmlns:cc="http://creativecommons.org/ns#"
   xmlns:rdf="http://www.w3.org/1999/02/22-rdf-syntax-ns#"
   xmlns:svg="http://www.w3.org/2000/svg"
   xmlns="http://www.w3.org/2000/svg"
   xmlns:sodipodi="http://sodipodi.sourceforge.net/DTD/sodipodi-0.dtd"
   xmlns:inkscape="http://www.inkscape.org/namespaces/inkscape"
   width="188.69458mm"
   height="176.3414mm"
   viewBox="0 0 188.69458 176.3414"
   version="1.1"
   id="svg8"
   inkscape:version="1.0.1 (3bc2e813f5, 2020-09-07)"
   sodipodi:docname="pipeline-input-output-tracking.svg">
  <defs
     id="defs2">
    <marker
       style="overflow:visible;"
       id="marker1904"
       refX="0.0"
       refY="0.0"
       orient="auto"
       inkscape:stockid="Arrow2Send"
       inkscape:isstock="true">
      <path
         transform="scale(0.3) rotate(180) translate(-2.3,0)"
         d="M 8.7185878,4.0337352 L -2.2072895,0.016013256 L 8.7185884,-4.0017078 C 6.9730900,-1.6296469 6.9831476,1.6157441 8.7185878,4.0337352 z "
         style="fill-rule:evenodd;stroke-width:0.625;stroke-linejoin:round;stroke:#000000;stroke-opacity:1;fill:#000000;fill-opacity:1"
         id="path1902" />
    </marker>
    <marker
       style="overflow:visible;"
       id="marker1894"
       refX="0.0"
       refY="0.0"
       orient="auto"
       inkscape:stockid="Arrow2Send"
       inkscape:isstock="true">
      <path
         transform="scale(0.3) rotate(180) translate(-2.3,0)"
         d="M 8.7185878,4.0337352 L -2.2072895,0.016013256 L 8.7185884,-4.0017078 C 6.9730900,-1.6296469 6.9831476,1.6157441 8.7185878,4.0337352 z "
         style="fill-rule:evenodd;stroke-width:0.625;stroke-linejoin:round;stroke:#000000;stroke-opacity:1;fill:#000000;fill-opacity:1"
         id="path1892" />
    </marker>
    <marker
       style="overflow:visible;"
       id="marker1884"
       refX="0.0"
       refY="0.0"
       orient="auto"
       inkscape:stockid="Arrow2Send"
       inkscape:isstock="true">
      <path
         transform="scale(0.3) rotate(180) translate(-2.3,0)"
         d="M 8.7185878,4.0337352 L -2.2072895,0.016013256 L 8.7185884,-4.0017078 C 6.9730900,-1.6296469 6.9831476,1.6157441 8.7185878,4.0337352 z "
         style="fill-rule:evenodd;stroke-width:0.625;stroke-linejoin:round;stroke:#000000;stroke-opacity:1;fill:#000000;fill-opacity:1"
         id="path1882" />
    </marker>
    <marker
       style="overflow:visible;"
       id="marker1874"
       refX="0.0"
       refY="0.0"
       orient="auto"
       inkscape:stockid="Arrow2Send"
       inkscape:isstock="true">
      <path
         transform="scale(0.3) rotate(180) translate(-2.3,0)"
         d="M 8.7185878,4.0337352 L -2.2072895,0.016013256 L 8.7185884,-4.0017078 C 6.9730900,-1.6296469 6.9831476,1.6157441 8.7185878,4.0337352 z "
         style="fill-rule:evenodd;stroke-width:0.625;stroke-linejoin:round;stroke:#000000;stroke-opacity:1;fill:#000000;fill-opacity:1"
         id="path1872" />
    </marker>
    <marker
       inkscape:isstock="true"
       style="overflow:visible"
       id="marker4124"
       refX="0"
       refY="0"
       orient="auto"
       inkscape:stockid="EmptyTriangleOutL">
      <path
         transform="matrix(0.8,0,0,0.8,-4.8,0)"
         style="fill:#ffffff;fill-rule:evenodd;stroke:#000000;stroke-width:1.00000003pt;stroke-opacity:1"
         d="M 5.77,0 -2.88,5 V -5 Z"
         id="path4122"
         inkscape:connector-curvature="0" />
    </marker>
    <marker
       inkscape:stockid="EmptyTriangleOutL"
       orient="auto"
       refY="0"
       refX="0"
       id="EmptyTriangleOutL"
       style="overflow:visible"
       inkscape:isstock="true">
      <path
         id="path1785"
         d="M 5.77,0 -2.88,5 V -5 Z"
         style="fill:#ffffff;fill-rule:evenodd;stroke:#000000;stroke-width:1.00000003pt;stroke-opacity:1"
         transform="matrix(0.8,0,0,0.8,-4.8,0)"
         inkscape:connector-curvature="0" />
    </marker>
    <marker
       inkscape:stockid="Arrow2Lend"
       orient="auto"
       refY="0"
       refX="0"
       id="Arrow2Lend"
       style="overflow:visible"
       inkscape:isstock="true">
      <path
         id="path1646"
         style="fill:#000000;fill-opacity:1;fill-rule:evenodd;stroke:#000000;stroke-width:0.625;stroke-linejoin:round;stroke-opacity:1"
         d="M 8.7185878,4.0337352 -2.2072895,0.01601326 8.7185884,-4.0017078 c -1.7454984,2.3720609 -1.7354408,5.6174519 -6e-7,8.035443 z"
         transform="matrix(-1.1,0,0,-1.1,-1.1,0)"
         inkscape:connector-curvature="0" />
    </marker>
    <marker
       inkscape:stockid="EmptyTriangleOutL"
       orient="auto"
       refY="0"
       refX="0"
       id="EmptyTriangleOutL-9"
       style="overflow:visible"
       inkscape:isstock="true"
       inkscape:collect="always">
      <path
         inkscape:connector-curvature="0"
         id="path1785-8"
         d="M 5.77,0 -2.88,5 V -5 Z"
         style="fill:#ffffff;fill-rule:evenodd;stroke:#000000;stroke-width:1.00000003pt;stroke-opacity:1"
         transform="matrix(0.8,0,0,0.8,-4.8,0)" />
    </marker>
    <marker
       inkscape:stockid="EmptyTriangleOutL"
       orient="auto"
       refY="0"
       refX="0"
       id="EmptyTriangleOutL-9-4"
       style="overflow:visible"
       inkscape:isstock="true">
      <path
         inkscape:connector-curvature="0"
         id="path1785-8-4"
         d="M 5.77,0 -2.88,5 V -5 Z"
         style="fill:#ffffff;fill-rule:evenodd;stroke:#000000;stroke-width:1.00000003pt;stroke-opacity:1"
         transform="matrix(0.8,0,0,0.8,-4.8,0)" />
    </marker>
    <marker
       inkscape:stockid="EmptyTriangleOutL"
       orient="auto"
       refY="0"
       refX="0"
       id="EmptyTriangleOutL-9-7"
       style="overflow:visible"
       inkscape:isstock="true">
      <path
         inkscape:connector-curvature="0"
         id="path1785-8-6"
         d="M 5.77,0 -2.88,5 V -5 Z"
         style="fill:#ffffff;fill-rule:evenodd;stroke:#000000;stroke-width:1.00000003pt;stroke-opacity:1"
         transform="matrix(0.8,0,0,0.8,-4.8,0)" />
    </marker>
    <marker
       inkscape:stockid="EmptyTriangleOutL"
       orient="auto"
       refY="0"
       refX="0"
       id="EmptyTriangleOutL-9-1"
       style="overflow:visible"
       inkscape:isstock="true">
      <path
         inkscape:connector-curvature="0"
         id="path1785-8-7"
         d="M 5.77,0 -2.88,5 V -5 Z"
         style="fill:#ffffff;fill-rule:evenodd;stroke:#000000;stroke-width:1.00000003pt;stroke-opacity:1"
         transform="matrix(0.8,0,0,0.8,-4.8,0)" />
    </marker>
    <marker
       inkscape:stockid="EmptyTriangleOutL"
       orient="auto"
       refY="0"
       refX="0"
       id="EmptyTriangleOutL-9-9"
       style="overflow:visible"
       inkscape:isstock="true">
      <path
         inkscape:connector-curvature="0"
         id="path1785-8-62"
         d="M 5.77,0 -2.88,5 V -5 Z"
         style="fill:#ffffff;fill-rule:evenodd;stroke:#000000;stroke-width:1.00000003pt;stroke-opacity:1"
         transform="matrix(0.8,0,0,0.8,-4.8,0)" />
    </marker>
    <marker
       inkscape:stockid="EmptyTriangleOutL"
       orient="auto"
       refY="0"
       refX="0"
       id="EmptyTriangleOutL-9-4-5"
       style="overflow:visible"
       inkscape:isstock="true">
      <path
         inkscape:connector-curvature="0"
         id="path1785-8-4-3"
         d="M 5.77,0 -2.88,5 V -5 Z"
         style="fill:#ffffff;fill-rule:evenodd;stroke:#000000;stroke-width:1pt;stroke-opacity:1"
         transform="matrix(0.8,0,0,0.8,-4.8,0)" />
    </marker>
    <marker
       inkscape:stockid="EmptyTriangleOutL"
       orient="auto"
       refY="0"
       refX="0"
       id="EmptyTriangleOutL-9-7-5"
       style="overflow:visible"
       inkscape:isstock="true">
      <path
         inkscape:connector-curvature="0"
         id="path1785-8-6-6"
         d="M 5.77,0 -2.88,5 V -5 Z"
         style="fill:#ffffff;fill-rule:evenodd;stroke:#000000;stroke-width:1pt;stroke-opacity:1"
         transform="matrix(0.8,0,0,0.8,-4.8,0)" />
    </marker>
    <marker
       inkscape:stockid="EmptyTriangleOutL"
       orient="auto"
       refY="0"
       refX="0"
       id="EmptyTriangleOutL-9-1-2"
       style="overflow:visible"
       inkscape:isstock="true">
      <path
         inkscape:connector-curvature="0"
         id="path1785-8-7-9"
         d="M 5.77,0 -2.88,5 V -5 Z"
         style="fill:#ffffff;fill-rule:evenodd;stroke:#000000;stroke-width:1pt;stroke-opacity:1"
         transform="matrix(0.8,0,0,0.8,-4.8,0)" />
    </marker>
  </defs>
  <sodipodi:namedview
     id="base"
     pagecolor="#ffffff"
     bordercolor="#666666"
     borderopacity="1.0"
     inkscape:pageopacity="0.0"
     inkscape:pageshadow="2"
     inkscape:zoom="1.0076119"
     inkscape:cx="247.55789"
     inkscape:cy="355.31141"
     inkscape:document-units="mm"
     inkscape:current-layer="g1570"
     showgrid="false"
     inkscape:window-width="1920"
     inkscape:window-height="1009"
     inkscape:window-x="0"
     inkscape:window-y="0"
     inkscape:window-maximized="1"
     inkscape:snap-midpoints="true"
     fit-margin-top="5"
     fit-margin-right="5"
     fit-margin-bottom="5"
     fit-margin-left="5"
     inkscape:snap-smooth-nodes="true"
     inkscape:snap-intersection-paths="true"
     inkscape:object-paths="true"
     inkscape:document-rotation="0"
     inkscape:snap-bbox="true"
     inkscape:bbox-paths="true"
     inkscape:bbox-nodes="true"
     inkscape:snap-bbox-edge-midpoints="true" />
  <metadata
     id="metadata5">
    <rdf:RDF>
      <cc:Work
         rdf:about="">
        <dc:format>image/svg+xml</dc:format>
        <dc:type
           rdf:resource="http://purl.org/dc/dcmitype/StillImage" />
        <dc:title />
      </cc:Work>
    </rdf:RDF>
  </metadata>
  <g
     inkscape:label="Livello 1"
     inkscape:groupmode="layer"
     id="layer1"
     style="display:inline"
     transform="translate(-2.5900329,-7.0938072)">
    <g
       id="g1570"
       transform="translate(0,10.054165)">
      <g
         transform="translate(-2.003479e-7,5.2916667)"
         id="g939">
        <rect
           style="opacity:1;vector-effect:none;fill:#9ee7e8;fill-opacity:1;stroke:#000000;stroke-width:0.5;stroke-linecap:butt;stroke-linejoin:miter;stroke-miterlimit:4;stroke-dasharray:none;stroke-dashoffset:0;stroke-opacity:1"
           id="rect34"
           width="69.816628"
           height="31.092197"
           x="7.8400331"
           y="41.108562"
           rx="1.9861313"
           ry="1.759023" />
        <g
           id="g847">
          <text
             id="text12"
             y="57.927406"
             x="11.397229"
             style="font-style:normal;font-weight:normal;font-size:3.52778px;line-height:1.25;font-family:sans-serif;letter-spacing:0px;word-spacing:0px;fill:#000000;fill-opacity:1;stroke:none;stroke-width:0.264583"
             xml:space="preserve"><tspan
               id="tspan14"
               style="font-style:normal;font-variant:normal;font-weight:normal;font-stretch:normal;font-family:monospace;-inkscape-font-specification:monospace;stroke-width:0.264583"
               y="57.927406"
               x="11.397229"
               sodipodi:role="line"><tspan
   style="font-weight:bold"
   id="tspan1072">c564448</tspan> ← <tspan
   style="font-weight:bold"
   id="tspan1033">v2020:latest</tspan></tspan><tspan
               id="tspan16"
               style="font-style:normal;font-variant:normal;font-weight:normal;font-stretch:normal;font-family:monospace;-inkscape-font-specification:monospace;stroke-width:0.264583"
               y="62.337128"
               x="11.397229"
               sodipodi:role="line">cf381b5</tspan><tspan
               id="tspan18"
               style="font-style:normal;font-variant:normal;font-weight:normal;font-stretch:normal;font-family:monospace;-inkscape-font-specification:monospace;stroke-width:0.264583"
               y="66.746849"
               x="11.397229"
               sodipodi:role="line">919aaa7</tspan></text>
          <text
             id="text28"
             y="49.192802"
             x="11.397229"
             style="font-style:normal;font-weight:normal;font-size:3.52778px;line-height:1.25;font-family:sans-serif;letter-spacing:0px;word-spacing:0px;fill:#000000;fill-opacity:1;stroke:none;stroke-width:0.264583"
             xml:space="preserve"><tspan
               id="tspan30"
               style="font-weight:bold;stroke-width:0.264583"
               y="49.192802"
               x="11.397229"
               sodipodi:role="line">Docker images for the build env</tspan></text>
        </g>
      </g>
      <g
         transform="translate(-87.830629,-33.50153)"
         id="g949">
        <rect
           style="display:inline;opacity:1;vector-effect:none;fill:#9ee7e8;fill-opacity:1;stroke:#000000;stroke-width:0.5;stroke-linecap:butt;stroke-linejoin:miter;stroke-miterlimit:4;stroke-dasharray:none;stroke-dashoffset:0;stroke-opacity:1"
           id="rect34-4"
           width="55.666122"
           height="31.092201"
           x="95.670662"
           y="43.517891"
           rx="1.9861313"
           ry="1.759023" />
        <g
           transform="translate(87.830626,2.4093271)"
           style="display:inline"
           id="g847-4">
          <text
             id="text12-3"
             y="57.927406"
             x="11.397229"
             style="font-style:normal;font-weight:normal;font-size:3.52778px;line-height:1.25;font-family:sans-serif;letter-spacing:0px;word-spacing:0px;fill:#000000;fill-opacity:1;stroke:none;stroke-width:0.264583"
             xml:space="preserve"><tspan
               id="tspan16-7"
               style="font-style:normal;font-variant:normal;font-weight:normal;font-stretch:normal;font-family:monospace;-inkscape-font-specification:monospace;stroke-width:0.264583"
               y="57.927406"
               x="11.397229"
               sodipodi:role="line"><tspan
   style="font-weight:bold"
   id="tspan1070">645e418</tspan> ← <tspan
   style="font-weight:bold"
   id="tspan1031">apertis/v2020</tspan></tspan><tspan
               style="font-style:normal;font-variant:normal;font-weight:normal;font-stretch:normal;font-family:monospace;-inkscape-font-specification:monospace;stroke-width:0.264583"
               y="62.337128"
               x="11.397229"
               sodipodi:role="line"
               id="tspan887">4920f99</tspan><tspan
               id="tspan18-8"
               style="font-style:normal;font-variant:normal;font-weight:normal;font-stretch:normal;font-family:monospace;-inkscape-font-specification:monospace;stroke-width:0.264583"
               y="66.746849"
               x="11.397229"
               sodipodi:role="line">cf6bfb7</tspan></text>
          <text
             id="text28-6"
             y="49.192802"
             x="11.397229"
             style="font-style:normal;font-weight:normal;font-size:3.52778px;line-height:1.25;font-family:sans-serif;letter-spacing:0px;word-spacing:0px;fill:#000000;fill-opacity:1;stroke:none;stroke-width:0.264583"
             xml:space="preserve"><tspan
               id="tspan30-8"
               style="font-weight:bold;stroke-width:0.264583"
               y="49.192802"
               x="11.397229"
               sodipodi:role="line">Image recipes</tspan></text>
        </g>
      </g>
      <g
         transform="translate(-8.2666375,-27.068598)"
         id="g959">
        <rect
           style="display:inline;opacity:1;vector-effect:none;fill:#9ee7e8;fill-opacity:1;stroke:#000000;stroke-width:0.5;stroke-linecap:butt;stroke-linejoin:miter;stroke-miterlimit:4;stroke-dasharray:none;stroke-dashoffset:0;stroke-opacity:1"
           id="rect34-8"
           width="58.122971"
           height="31.092194"
           x="16.10667"
           y="109.85271"
           rx="1.9861313"
           ry="1.759023" />
        <g
           transform="translate(8.266638,68.744149)"
           style="display:inline"
           id="g847-43">
          <text
             id="text12-1"
             y="57.927406"
             x="11.397229"
             style="font-style:normal;font-weight:normal;font-size:3.52778px;line-height:1.25;font-family:sans-serif;letter-spacing:0px;word-spacing:0px;fill:#000000;fill-opacity:1;stroke:none;stroke-width:0.264583"
             xml:space="preserve"><tspan
               id="tspan16-9"
               style="font-style:normal;font-variant:normal;font-weight:normal;font-stretch:normal;font-family:monospace;-inkscape-font-specification:monospace;stroke-width:0.264583"
               y="57.927406"
               x="11.397229"
               sodipodi:role="line"><tspan
   style="font-weight:bold"
   id="tspan1074">20200309T115300Z</tspan> ← <tspan
   style="font-weight:bold"
   id="tspan1035">v2020</tspan></tspan><tspan
               style="font-style:normal;font-variant:normal;font-weight:normal;font-stretch:normal;font-family:monospace;-inkscape-font-specification:monospace;stroke-width:0.264583"
               y="62.337128"
               x="11.397229"
               sodipodi:role="line"
               id="tspan927">20200309T091221Z</tspan><tspan
               id="tspan18-2"
               style="font-style:normal;font-variant:normal;font-weight:normal;font-stretch:normal;font-family:monospace;-inkscape-font-specification:monospace;stroke-width:0.264583"
               y="66.746849"
               x="11.397229"
               sodipodi:role="line">20200308T181534Z</tspan></text>
          <text
             id="text28-0"
             y="49.192802"
             x="11.397229"
             style="font-style:normal;font-weight:normal;font-size:3.52778px;line-height:1.25;font-family:sans-serif;letter-spacing:0px;word-spacing:0px;fill:#000000;fill-opacity:1;stroke:none;stroke-width:0.264583"
             xml:space="preserve"><tspan
               id="tspan30-6"
               style="font-weight:bold;stroke-width:0.264583"
               y="49.192802"
               x="11.397229"
               sodipodi:role="line">APT repositories</tspan></text>
        </g>
      </g>
      <g
         transform="translate(-35.008455,18.00869)"
         id="g1019">
        <rect
           style="display:inline;opacity:1;vector-effect:none;fill:#9ee7e8;fill-opacity:1;stroke:#000000;stroke-width:0.5;stroke-linecap:butt;stroke-linejoin:miter;stroke-miterlimit:4;stroke-dasharray:none;stroke-dashoffset:0;stroke-opacity:1"
           id="rect34-4-9"
           width="55.666122"
           height="36.036686"
           x="42.848488"
           y="101.15926"
           rx="1.9861313"
           ry="1.759023" />
        <g
           transform="translate(35.008451,60.050692)"
           style="display:inline"
           id="g847-4-2">
          <text
             id="text12-3-6"
             y="63.219078"
             x="11.397229"
             style="font-style:normal;font-weight:normal;font-size:3.52778px;line-height:1.25;font-family:sans-serif;letter-spacing:0px;word-spacing:0px;fill:#000000;fill-opacity:1;stroke:none;stroke-width:0.264583"
             xml:space="preserve"><tspan
               id="tspan16-7-6"
               style="font-style:normal;font-variant:normal;font-weight:normal;font-stretch:normal;font-family:monospace;-inkscape-font-specification:monospace;stroke-width:0.264583"
               y="63.219078"
               x="11.397229"
               sodipodi:role="line"><tspan
   style="font-weight:bold"
   id="tspan1076">b602ab1</tspan> ← <tspan
   style="font-weight:bold"
   id="tspan1037">apertis/v2020</tspan></tspan><tspan
               style="font-style:normal;font-variant:normal;font-weight:normal;font-stretch:normal;font-family:monospace;-inkscape-font-specification:monospace;stroke-width:0.264583"
               y="67.628799"
               x="11.397229"
               sodipodi:role="line"
               id="tspan887-4">34920f9</tspan><tspan
               id="tspan18-8-9"
               style="font-style:normal;font-variant:normal;font-weight:normal;font-stretch:normal;font-family:monospace;-inkscape-font-specification:monospace;stroke-width:0.264583"
               y="72.038521"
               x="11.397229"
               sodipodi:role="line">7c3842g</tspan></text>
          <text
             id="text28-6-5"
             y="49.192802"
             x="11.397229"
             style="font-style:normal;font-weight:normal;font-size:3.52778px;line-height:1.25;font-family:sans-serif;letter-spacing:0px;word-spacing:0px;fill:#000000;fill-opacity:1;stroke:none;stroke-width:0.264583"
             xml:space="preserve"><tspan
               id="tspan30-8-0"
               style="font-weight:bold;stroke-width:0.264583"
               y="49.192802"
               x="11.397229"
               sodipodi:role="line">External resources</tspan><tspan
               style="font-weight:normal;stroke-width:0.264583"
               y="53.602524"
               x="11.397229"
               sodipodi:role="line"
               id="tspan1008">via Git-LFS</tspan></text>
        </g>
      </g>
    </g>
    <flowRoot
       xml:space="preserve"
       id="flowRoot1349"
       style="font-style:normal;font-weight:normal;font-size:13.3333px;line-height:1.25;font-family:sans-serif;letter-spacing:0px;word-spacing:0px;fill:#000000;fill-opacity:1;stroke:none"
       transform="scale(0.26458333)"><flowRegion
         id="flowRegion1351"><rect
           id="rect1353"
           width="291.78571"
           height="62.142857"
           x="459.64285"
           y="259.30539" /></flowRegion><flowPara
         id="flowPara1355" /></flowRoot>
    <rect
       style="display:inline;opacity:1;vector-effect:none;fill:#e9f5d6;fill-opacity:1;stroke:#000000;stroke-width:0.524686;stroke-linecap:butt;stroke-linejoin:miter;stroke-miterlimit:4;stroke-dasharray:none;stroke-dashoffset:0;stroke-opacity:1"
       id="rect34-4-8"
       width="68.146599"
       height="111.31239"
       x="117.87566"
       y="12.356151"
       rx="1.9854121"
       ry="1.9377064" />
    <text
       xml:space="preserve"
       style="font-style:normal;font-weight:normal;font-size:3.52778px;line-height:1.25;font-family:sans-serif;letter-spacing:0px;word-spacing:0px;fill:#000000;fill-opacity:1;stroke:none;stroke-width:0.264583"
       x="121.42051"
       y="19.199625"
       id="text28-6-2"><tspan
         sodipodi:role="line"
         x="121.42051"
         y="19.199625"
         style="font-weight:bold;stroke-width:0.264583"
         id="tspan1060">Build pipeline</tspan><tspan
         sodipodi:role="line"
         x="121.42051"
         y="23.60935"
         style="font-weight:normal;stroke-width:0.264583"
         id="tspan5402">with no overrides</tspan></text>
    <g
       id="g1323"
       transform="translate(-11.919681,9.4394658)">
      <rect
         ry="1.759023"
         rx="1.9861313"
         y="54.592598"
         x="131.57837"
         height="9.7365417"
         width="64.486031"
         id="rect34-4-8-1"
         style="display:inline;opacity:1;vector-effect:none;fill:#cce89e;fill-opacity:1;stroke:#000000;stroke-width:0.5;stroke-linecap:butt;stroke-linejoin:miter;stroke-miterlimit:4;stroke-dasharray:none;stroke-dashoffset:0;stroke-opacity:1" />
      <text
         id="text28-6-2-5"
         y="60.560169"
         x="133.34019"
         style="font-style:normal;font-weight:normal;font-size:3.52778px;line-height:1.25;font-family:sans-serif;letter-spacing:0px;word-spacing:0px;display:inline;fill:#000000;fill-opacity:1;stroke:none;stroke-width:0.264583"
         xml:space="preserve"><tspan
           id="tspan1060-9"
           style="font-weight:bold;stroke-width:0.264583"
           y="60.560169"
           x="133.34019"
           sodipodi:role="line">Checkout recipes</tspan></text>
    </g>
    <g
       style="display:inline"
       id="g1323-6"
       transform="translate(-11.919681,25.314462)">
      <rect
         ry="1.759023"
         rx="1.9861313"
         y="54.592598"
         x="131.57837"
         height="9.7365417"
         width="64.486023"
         id="rect34-4-8-1-7"
         style="display:inline;opacity:1;vector-effect:none;fill:#cce89e;fill-opacity:1;stroke:#000000;stroke-width:0.5;stroke-linecap:butt;stroke-linejoin:miter;stroke-miterlimit:4;stroke-dasharray:none;stroke-dashoffset:0;stroke-opacity:1" />
      <text
         id="text28-6-2-5-3"
         y="60.560169"
         x="133.34019"
         style="font-style:normal;font-weight:normal;font-size:3.52778px;line-height:1.25;font-family:sans-serif;letter-spacing:0px;word-spacing:0px;display:inline;fill:#000000;fill-opacity:1;stroke:none;stroke-width:0.264583"
         xml:space="preserve"><tspan
           id="tspan1060-9-6"
           style="font-weight:bold;stroke-width:0.264583"
           y="60.560169"
           x="133.34019"
           sodipodi:role="line">Create build environment</tspan></text>
    </g>
    <g
       style="display:inline"
       id="g1323-6-3"
       transform="translate(-11.919681,41.718639)">
      <rect
         ry="1.759023"
         rx="1.9861313"
         y="54.592598"
         x="131.57837"
         height="9.7365417"
         width="64.486023"
         id="rect34-4-8-1-7-9"
         style="display:inline;opacity:1;vector-effect:none;fill:#cce89e;fill-opacity:1;stroke:#000000;stroke-width:0.5;stroke-linecap:butt;stroke-linejoin:miter;stroke-miterlimit:4;stroke-dasharray:none;stroke-dashoffset:0;stroke-opacity:1" />
      <text
         id="text28-6-2-5-3-4"
         y="60.560169"
         x="133.34019"
         style="font-style:normal;font-weight:normal;font-size:3.52778px;line-height:1.25;font-family:sans-serif;letter-spacing:0px;word-spacing:0px;display:inline;fill:#000000;fill-opacity:1;stroke:none;stroke-width:0.264583"
         xml:space="preserve"><tspan
           id="tspan1060-9-6-8"
           style="font-weight:bold;stroke-width:0.264583"
           y="60.560169"
           x="133.34019"
           sodipodi:role="line">Populate rootfs</tspan></text>
    </g>
    <g
       style="display:inline"
       id="g1323-6-9"
       transform="translate(-11.919681,57.593631)">
      <rect
         ry="1.759023"
         rx="1.9861313"
         y="54.592598"
         x="131.57837"
         height="9.7365417"
         width="64.486023"
         id="rect34-4-8-1-7-3"
         style="display:inline;opacity:1;vector-effect:none;fill:#cce89e;fill-opacity:1;stroke:#000000;stroke-width:0.5;stroke-linecap:butt;stroke-linejoin:miter;stroke-miterlimit:4;stroke-dasharray:none;stroke-dashoffset:0;stroke-opacity:1" />
      <text
         id="text28-6-2-5-3-9"
         y="60.560169"
         x="133.34019"
         style="font-style:normal;font-weight:normal;font-size:3.52778px;line-height:1.25;font-family:sans-serif;letter-spacing:0px;word-spacing:0px;display:inline;fill:#000000;fill-opacity:1;stroke:none;stroke-width:0.264583"
         xml:space="preserve"><tspan
           id="tspan1060-9-6-0"
           style="font-weight:bold;stroke-width:0.264583"
           y="60.560169"
           x="133.34019"
           sodipodi:role="line">Add extra data<tspan
   style="font-weight:normal;font-size:2.99861px"
   id="tspan1030"> (e.g. demo music)</tspan></tspan></text>
    </g>
    <text
       xml:space="preserve"
       style="font-style:normal;font-weight:normal;font-size:3.52778px;line-height:1.25;font-family:sans-serif;letter-spacing:0px;word-spacing:0px;display:inline;fill:#000000;fill-opacity:1;stroke:none;stroke-width:0.264583"
       x="150.88788"
       y="24.759235"
       id="text12-3-1-9-4"><tspan
         sodipodi:role="line"
         x="150.88788"
         y="24.759235"
         style="font-style:normal;font-variant:normal;font-weight:normal;font-stretch:normal;font-family:monospace;-inkscape-font-specification:monospace;stroke-width:0.264583"
         id="tspan18-8-7-9">↓</tspan></text>
    <text
       xml:space="preserve"
       style="font-style:normal;font-weight:normal;font-size:3.52778px;line-height:1.25;font-family:sans-serif;letter-spacing:0px;word-spacing:0px;display:inline;fill:#000000;fill-opacity:1;stroke:none;stroke-width:0.264583"
       x="150.88788"
       y="77.786095"
       id="text12-3-1-9-4-5"><tspan
         sodipodi:role="line"
         x="150.88788"
         y="77.786095"
         style="font-style:normal;font-variant:normal;font-weight:normal;font-stretch:normal;font-family:monospace;-inkscape-font-specification:monospace;stroke-width:0.264583"
         id="tspan18-8-7-9-6">↓</tspan></text>
    <text
       xml:space="preserve"
       style="font-style:normal;font-weight:normal;font-size:3.52778px;line-height:1.25;font-family:sans-serif;letter-spacing:0px;word-spacing:0px;display:inline;fill:#000000;fill-opacity:1;stroke:none;stroke-width:0.264583"
       x="150.88788"
       y="94.190277"
       id="text12-3-1-9-4-5-1"><tspan
         sodipodi:role="line"
         x="150.88788"
         y="94.190277"
         style="font-style:normal;font-variant:normal;font-weight:normal;font-stretch:normal;font-family:monospace;-inkscape-font-specification:monospace;stroke-width:0.264583"
         id="tspan18-8-7-9-6-2">↓</tspan></text>
    <text
       xml:space="preserve"
       style="font-style:normal;font-weight:normal;font-size:3.52778px;line-height:1.25;font-family:sans-serif;letter-spacing:0px;word-spacing:0px;display:inline;fill:#000000;fill-opacity:1;stroke:none;stroke-width:0.264583"
       x="150.88788"
       y="110.06526"
       id="text12-3-1-9-4-5-8"><tspan
         sodipodi:role="line"
         x="150.88788"
         y="110.06526"
         style="font-style:normal;font-variant:normal;font-weight:normal;font-stretch:normal;font-family:monospace;-inkscape-font-specification:monospace;stroke-width:0.264583"
         id="tspan18-8-7-9-6-8">↓</tspan></text>
    <rect
       ry="1.759023"
       rx="1.9861313"
       y="135.46956"
       x="119.65868"
       height="42.715649"
       width="64.486023"
       id="rect34-4-8-1-7-3-0"
       style="display:inline;vector-effect:none;fill:#ecb146;fill-opacity:1;stroke:#000000;stroke-width:0.5;stroke-linecap:butt;stroke-linejoin:miter;stroke-miterlimit:4;stroke-dasharray:none;stroke-dashoffset:0;stroke-opacity:1" />
    <text
       id="text28-6-2-5-3-9-9"
       y="141.43716"
       x="121.42051"
       style="font-style:normal;font-weight:normal;font-size:3.52778px;line-height:1.25;font-family:sans-serif;letter-spacing:0px;word-spacing:0px;display:inline;fill:#000000;fill-opacity:1;stroke:none;stroke-width:0.264583"
       xml:space="preserve"><tspan
         id="tspan1060-9-6-0-6"
         style="font-weight:bold;stroke-width:0.264583"
         y="141.43716"
         x="121.42051"
         sodipodi:role="line">Output</tspan></text>
    <text
       id="text1080-1"
       y="150.17171"
       x="121.42051"
       style="font-style:normal;font-weight:normal;font-size:3.52778px;line-height:1.25;font-family:sans-serif;letter-spacing:0px;word-spacing:0px;display:inline;fill:#000000;fill-opacity:1;stroke:none;stroke-width:0.264583"
       xml:space="preserve"><tspan
         style="stroke-width:0.264583"
         y="150.17171"
         x="121.42051"
         id="tspan1078-5"
         sodipodi:role="line">Artifacts: ospacks, images...</tspan><tspan
         id="tspan1496"
         y="154.58144"
         x="121.42051"
         sodipodi:role="line" /><tspan
         id="tspan1502"
         style="font-style:normal;font-variant:normal;font-weight:normal;font-stretch:normal;font-family:sans-serif;-inkscape-font-specification:monospace;stroke-width:0.264583"
         y="158.99115"
         x="121.42051"
         sodipodi:role="line">Metadata:</tspan><tspan
         style="font-style:normal;font-variant:normal;font-weight:normal;font-stretch:normal;font-family:monospace;-inkscape-font-specification:monospace;stroke-width:0.264583"
         y="163.40088"
         x="121.42051"
         sodipodi:role="line"
         id="tspan5472">meta/build-env.txt</tspan><tspan
         id="tspan1529"
         style="font-style:normal;font-variant:normal;font-weight:normal;font-stretch:normal;font-family:monospace;-inkscape-font-specification:monospace;stroke-width:0.264583"
         y="167.81061"
         x="121.42051"
         sodipodi:role="line">*/*.pkglist.gz</tspan><tspan
         id="tspan1531"
         style="font-style:normal;font-variant:normal;font-weight:normal;font-stretch:normal;font-family:monospace;-inkscape-font-specification:monospace;stroke-width:0.264583"
         y="172.22034"
         x="121.42051"
         sodipodi:role="line">*/*.filelist.gz</tspan></text>
    <path
       style="opacity:1;vector-effect:none;fill:none;fill-opacity:1;stroke:#000000;stroke-width:0.5;stroke-linecap:butt;stroke-linejoin:miter;stroke-miterlimit:4;stroke-dasharray:none;stroke-dashoffset:0;stroke-opacity:1;marker-end:url(#marker4124)"
       d="m 151.9017,123.93089 v 11.30827"
       id="path4052"
       inkscape:connector-curvature="0"
       sodipodi:nodetypes="cc" />
    <g
       id="g1323-62"
       transform="translate(-11.91968,-5.9063675)"
       style="display:inline">
      <rect
         ry="1.759023"
         rx="1.9861313"
         y="33.425926"
         x="131.57837"
         height="30.903212"
         width="64.486023"
         id="rect34-4-8-1-6"
         style="display:inline;opacity:1;vector-effect:none;fill:#cce89e;fill-opacity:1;stroke:#000000;stroke-width:0.5;stroke-linecap:butt;stroke-linejoin:miter;stroke-miterlimit:4;stroke-dasharray:none;stroke-dashoffset:0;stroke-opacity:1" />
    </g>
    <path
       style="display:inline;fill:none;stroke:#000000;stroke-width:0.5;stroke-linecap:butt;stroke-linejoin:miter;stroke-miterlimit:4;stroke-dasharray:none;stroke-opacity:1;marker-end:url(#EmptyTriangleOutL-9)"
       d="M 27.491667,36.633478 119.5635,68.956887"
       id="path1623-4"
       inkscape:connector-curvature="0"
       sodipodi:nodetypes="cc" />
    <path
       style="display:inline;fill:none;stroke:#000000;stroke-width:0.5;stroke-linecap:butt;stroke-linejoin:miter;stroke-miterlimit:4;stroke-dasharray:none;stroke-opacity:1;marker-end:url(#EmptyTriangleOutL-9-4)"
       d="M 26.907777,73.355513 119.5635,84.703637"
       id="path1623-4-4"
       inkscape:connector-curvature="0"
       sodipodi:nodetypes="cc" />
    <path
       style="display:inline;fill:none;stroke:#000000;stroke-width:0.5;stroke-linecap:butt;stroke-linejoin:miter;stroke-miterlimit:4;stroke-dasharray:none;stroke-opacity:1;marker-end:url(#EmptyTriangleOutL-9-7)"
       d="M 47.733635,107.21848 119.5635,100.90735"
       id="path1623-4-3"
       inkscape:connector-curvature="0"
       sodipodi:nodetypes="cc" />
    <path
       style="display:inline;fill:none;stroke:#000000;stroke-width:0.5;stroke-linecap:butt;stroke-linejoin:miter;stroke-miterlimit:4;stroke-dasharray:none;stroke-opacity:1;marker-end:url(#EmptyTriangleOutL-9-1)"
       d="M 27.558484,149.21773 119.5635,116.84917"
       id="path1623-4-5"
       inkscape:connector-curvature="0"
       sodipodi:nodetypes="cc" />
    <text
       id="text12-3-7"
       y="48.031929"
       x="201.82059"
       style="font-style:normal;font-weight:normal;font-size:3.52778px;line-height:1.25;font-family:sans-serif;letter-spacing:0px;word-spacing:0px;display:inline;fill:#000000;fill-opacity:1;stroke:none;stroke-width:0.264583"
       xml:space="preserve" />
    <text
       xml:space="preserve"
       style="font-style:normal;font-weight:normal;font-size:3.52778px;line-height:1.25;font-family:sans-serif;letter-spacing:0px;word-spacing:0px;fill:#000000;fill-opacity:1;stroke:none;stroke-width:0.264583"
       x="217.5253"
       y="53.016369"
       id="text5244" />
    <flowRoot
       xml:space="preserve"
       id="flowRoot5268"
       style="font-style:normal;font-weight:normal;font-size:13.3333px;line-height:1.25;font-family:sans-serif;letter-spacing:0px;word-spacing:0px;fill:#000000;fill-opacity:1;stroke:none"
       transform="matrix(0.26458333,0,0,0.26458333,-12.189732,-43.561756)"><flowRegion
         id="flowRegion5270"><rect
           id="rect5272"
           width="210.71432"
           height="76.785706"
           x="799.28571"
           y="302.16254" /></flowRegion><flowPara
         id="flowPara5296" /></flowRoot>
    <text
       xml:space="preserve"
       style="font-style:normal;font-weight:normal;font-size:3.52778px;line-height:1.25;font-family:sans-serif;letter-spacing:0px;word-spacing:0px;fill:#000000;fill-opacity:1;stroke:none;stroke-width:0.264583"
       x="100.10789"
       y="22.625237"
       id="text1114"><tspan
         sodipodi:role="line"
         id="tspan1112"
         x="100.10789"
         y="22.625237"
         style="stroke-width:0.264583">-</tspan></text>
    <text
       xml:space="preserve"
       style="font-style:normal;font-weight:normal;font-size:3.52778px;line-height:1.25;font-family:sans-serif;letter-spacing:0px;word-spacing:0px;fill:#000000;fill-opacity:1;stroke:none;stroke-width:0.264583"
       x="241.94344"
       y="61.348896"
       id="text1118" />
    <text
       id="text28-6-2-5-36"
       y="33.487133"
       x="121.42052"
       style="font-style:normal;font-weight:normal;font-size:3.52778px;line-height:1.25;font-family:sans-serif;letter-spacing:0px;word-spacing:0px;display:inline;fill:#000000;fill-opacity:1;stroke:none;stroke-width:0.264583"
       xml:space="preserve"><tspan
         id="tspan1060-9-0"
         style="font-weight:bold;stroke-width:0.264583"
         y="33.487133"
         x="121.42052"
         sodipodi:role="line">Capture build-env metadata</tspan></text>
    <text
       xml:space="preserve"
       style="font-style:normal;font-weight:normal;font-size:3.52778px;line-height:1.25;font-family:sans-serif;letter-spacing:0px;word-spacing:0px;fill:#000000;fill-opacity:1;stroke:none;stroke-width:0.264583"
       x="121.42051"
       y="41.163387"
       id="text1080"><tspan
         sodipodi:role="line"
         x="121.42051"
         y="41.163387"
         style="font-style:normal;font-variant:normal;font-weight:normal;font-stretch:normal;font-family:monospace;-inkscape-font-specification:monospace;stroke-width:0.264583"
         id="tspan5338">RECIPE_COMMIT=<tspan
   style="font-weight:bold"
   id="tspan1039">645e418</tspan></tspan><tspan
         sodipodi:role="line"
         x="121.42051"
         y="45.573112"
         style="font-style:normal;font-variant:normal;font-weight:normal;font-stretch:normal;font-family:monospace;-inkscape-font-specification:monospace;stroke-width:0.264583"
         id="tspan5344">DOCKER_IMAGE=<tspan
   style="font-weight:bold"
   id="tspan1028">…@sha256:c564448</tspan></tspan><tspan
         sodipodi:role="line"
         x="121.42051"
         y="49.982838"
         style="font-style:normal;font-variant:normal;font-weight:normal;font-stretch:normal;font-family:monospace;-inkscape-font-specification:monospace;stroke-width:0.264583"
         id="tspan1025">APT_SNAPSHOT=<tspan
   style="font-weight:bold"
   id="tspan1302">20200309T115300Z</tspan></tspan><tspan
         sodipodi:role="line"
         x="121.42051"
         y="54.392563"
         style="font-style:normal;font-variant:normal;font-weight:normal;font-stretch:normal;font-family:monospace;-inkscape-font-specification:monospace;stroke-width:0.264583"
         id="tspan1110">MEDIA_REF=<tspan
   style="font-weight:bold"
   id="tspan1304">b602ab1</tspan></tspan></text>
    <text
       xml:space="preserve"
       style="font-style:normal;font-weight:normal;font-size:3.52777px;line-height:1.25;font-family:sans-serif;letter-spacing:0px;word-spacing:0px;display:inline;fill:#000000;fill-opacity:1;stroke:none;stroke-width:0.264583"
       x="150.88788"
       y="61.911098"
       id="text12-3-1-9-4-5-7"><tspan
         sodipodi:role="line"
         x="150.88788"
         y="61.911098"
         style="font-style:normal;font-variant:normal;font-weight:normal;font-stretch:normal;font-family:monospace;-inkscape-font-specification:monospace;stroke-width:0.264583"
         id="tspan18-8-7-9-6-9">↓</tspan></text>
    <path
       style="display:inline;fill:none;stroke:#000000;stroke-width:0.50000001;stroke-linecap:butt;stroke-linejoin:miter;stroke-miterlimit:4;stroke-dasharray:0.50000001, 0.50000001000000005;stroke-opacity:1;marker-end:url(#marker1874);stroke-dashoffset:0"
       d="M 61.358335,35.575145 119.5635,39.852719"
       id="path1623-4-1"
       inkscape:connector-curvature="0"
       sodipodi:nodetypes="cc" />
    <path
       style="display:inline;fill:none;stroke:#000000;stroke-width:0.50000001;stroke-linecap:butt;stroke-linejoin:miter;stroke-miterlimit:4;stroke-dasharray:0.50000001, 0.50000001000000005;stroke-opacity:1;marker-end:url(#marker1884);stroke-dashoffset:0"
       d="M 60.245278,72.29718 119.5635,43.957805"
       id="path1623-4-4-2"
       inkscape:connector-curvature="0"
       sodipodi:nodetypes="cc" />
    <path
       style="display:inline;fill:none;stroke:#000000;stroke-width:0.50000001;stroke-linecap:butt;stroke-linejoin:miter;stroke-miterlimit:4;stroke-dasharray:0.50000001, 0.50000001000000005;stroke-opacity:1;marker-end:url(#marker1894);stroke-dashoffset:0"
       d="M 63.608636,108.27681 119.5635,48.51985"
       id="path1623-4-3-7"
       inkscape:connector-curvature="0"
       sodipodi:nodetypes="cc" />
    <path
       style="display:inline;fill:none;stroke:#000000;stroke-width:0.50000001;stroke-linecap:butt;stroke-linejoin:miter;stroke-miterlimit:4;stroke-dasharray:0.50000001, 0.50000001000000005;stroke-opacity:1;marker-end:url(#marker1904);stroke-dashoffset:0"
       d="M 61.425152,149.7469 119.5635,53.34917"
       id="path1623-4-5-0"
       inkscape:connector-curvature="0"
       sodipodi:nodetypes="cc" />
    <text
       xml:space="preserve"
       style="font-style:normal;font-weight:normal;font-size:3.52777px;line-height:1.25;font-family:sans-serif;letter-spacing:0px;word-spacing:0px;display:inline;fill:#000000;fill-opacity:1;stroke:none;stroke-width:0.264583"
       x="100.10789"
       y="22.625237"
       id="text1114-9"><tspan
         sodipodi:role="line"
         id="tspan1112-3"
         x="100.10789"
         y="22.625237"
         style="stroke-width:0.264583">-</tspan></text>
  </g>
</svg>
